{
    "SCRANTON.dmevals.local": {
        "SCRANTON.dmevals.local": "fqdn",
        "SCRANTON": "hostname",
        "10.0.1.4": "ip"
    },
    "NASHUA.dmevals.local": {
        "NASHUA.dmevals.local": "fqdn",
        "NASHUA": "hostname",
        "10.0.1.6": "ip"
    },
    "UTICA.dmevals.local": {
        "UTICA.dmevals.local": "fqdn",
        "UTICA": "hostname",
        "10.0.1.5": "ip"
    },
    "NEWYORK.dmevals.local": {
        "NEWYORK.dmevals.local": "fqdn",
        "NEWYORK": "hostname",
        "10.0.0.4": "ip"
    }
}