﻿b.name
C:\Windows\System32\net.exe
"SHA1=5B9EA3C45A11D4AEB1B1AC0F72C4C19308FC7D0B,MD5=A63DF9A6E9098CC189F2A3EFC37600F6,SHA256=96CDFD7B263947A6A7C0DB54141A6B8D7777DB0A03A17CBF95666D98422F937B,IMPHASH=57F0C47AE2A1A2C06C8B987372AB0B07"
C:\windows\system32\wsmprovhost.exe -Embedding
C:\Windows\System32\wsmprovhost.exe
"SHA1=36C5D12033B2EAF251BAE61C00690FFB17FDDC87,MD5=CDA48FC75952AD12D99E526D0B6BF70A,SHA256=908B64B1971A979C7E3E8CE4621945CBA84854CB98D76367B791A6E22B5F6D53,IMPHASH=A7CEFACDDA74B13CD330390769752481"
NT AUTHORITY\SYSTEM
C:\Windows\System32\WindowsPowerShell\v1.0\powershell.exe
"SHA1=BCD703932C9BEDE27659407E458AE103D0B4CC88,MD5=AFA4101C9927095083280A8EA0DA23A4,SHA256=E32A750F0316199E83D5919708B25B12634969DEA31FF8A49C09F392F8E9A2F3,IMPHASH=D6BABC3862261C87CE2D504A3EB31724"
C:\Windows\System32\m.exe
"SHA1=E7A3B17F625283E3064D91A988D0B1694BA3E9B8,MD5=79CBBF946E797103BED792740AEBFEC1,SHA256=90F0822D26680C8FFD703A080C876F87695580747A3704C169E39E1A8802EA38,IMPHASH=90B4317BE51850B8EF9F14EB56FB7DDC"
C:\Windows\System32\netsh.exe
"""C:\Packages\Plugins\Microsoft.Azure.NetworkWatcher.NetworkWatcherAgentWindows\1.4.1421.1\NetworkWatcherAgent\NetworkWatcherAgent.exe"" /service"
C:\Packages\Plugins\Microsoft.Azure.NetworkWatcher.NetworkWatcherAgentWindows\1.4.1421.1\NetworkWatcherAgent\NetworkWatcherAgent.exe
10.0.1.5
192.168.0.4
10.0.1.4
HKLM\SOFTWARE\Microsoft\Windows\CurrentVersion\Internet Settings\Connections
C:\windows\System32\WindowsPowerShell\v1.0\powershell.exe
"SHA1=68EE55861CC6F914DE2A05BFD008BEFA02A696E4,MD5=41FFA458DF60F9AF1E2D1BADDDE158B4,SHA256=B68627CB167153B068970C336935F1E24C563D6764A2F7E99851A73DC202BED1,IMPHASH=80B8F4D6B69BDFF7CF0EE11866716275"
C:\Windows\System32\WsmSvc.dll
HKLM\System\CurrentControlSet\Services\Tcpip\Parameters
"SHA1=F2859AF15CED4F162359CC8C1BA1B1FE85DC8867,MD5=56B24BF15E6E88A2D6EF9AFC26BF7FCF,SHA256=74DC0C738188BBF385E9C3295C9904A6CEF4A947AFB71F2A0825037BBB27C92A,IMPHASH=06BB7C9ADD27BBA7B9DE3ADCE76673AB"
C:\Windows\System32\netutils.dll
\wkssvc
\lsass
"SHA1=F441F65BCA44665B17ED2E8885D67CAF03AB25CF,MD5=FA83F6215D5AAD7B601AA5A50DE35750,SHA256=C2DC55884E167B603336C4494A5D783BB091A0186ACB2CF26AC8BDD27EBC49B1,IMPHASH=82388C8C95B6A41C7CE3802CBA3F3228"
C:\Windows\System32\miutils.dll
"SHA1=29E2C890241C481D2554B1F307975AD73C521DE2,MD5=C662B3B48B1460AD6DDCB6BA2CA69A10,SHA256=A1667D0D212BDE2DF1F28526A35D2D29D49FF5696F64CAF72D4BFA9DEFABCDA2,IMPHASH=89D27046CB786351E771526CAF261B26"
C:\Windows\System32\mi.dll
"SHA1=89C99ECF6EEEBE6158E4853115E17E71730780D8,MD5=609AC3B4E090CB1894F56D978E74C4F1,SHA256=108A9798E55A91928F7FE8EBC5087EEDBB6C023D958F18A6CEFD46BA5399BE61,IMPHASH=CA2E5F1683005B67E0843A76EE3BADA8"
C:\Windows\System32\dsrole.dll
"SHA1=55E3CFD45165D85D68E41DCFA8CDEE7A49748535,MD5=AF1FF79545FD839C3DD08BE291DCDFA0,SHA256=5E3CA3FB6DF4300CE08FAA4DDE075E0289546FA22091C11B2041A2F326B4CF6B,IMPHASH=1DA3FF19E9F7A598F95DC9DD3B4992F3"
C:\Windows\System32\wbemcomn.dll
"SHA1=CD37F7AE35B82C7B29C3D3146C2EF65CFDC53A03,MD5=890C70EBEE24719C0F2DE46820BEAE82,SHA256=F5EA9BCD78892E8A8EDD3EF0899BEF35917686C5DA5425260B89C13319D02DFB,IMPHASH=C908A257ACFAF3BDE15426EE5244D1EB"
C:\Windows\System32\ole32.dll
"SHA1=2B164C24EC0A532D1A271106BCD9C372EB044F8D,MD5=EA5B3C8C1B44E0D4471D31AE59FC9D65,SHA256=789FE9326ED06E185C4EF655EFE75ABD58A061E8CB4852980EBEDA5BEF761C33,IMPHASH=00AA1A8F47E0B6F5CA2B74634D1E7F7F"
C:\Windows\System32\oleaut32.dll
"SHA1=30D5ADBC0664977C27B65622F514632581C9AF45,MD5=07B027B1E0B775FAE815E487F28137B9,SHA256=21358CE9A416C7F6DB063095102E91F014BDB85B08A4E783E17234792C9B483A,IMPHASH=817FF4748665EB442F0081A91349F764"
C:\Windows\System32\powrprof.dll
"SHA1=387FC7660AFDEC45CFFB84980EB77D0E787ED31B,MD5=F4862E1CC68687B9D4B245512BDF8383,SHA256=A2DF0AC95B9AA338EB6062BA5739F65BFBA86658546F4C5CAC6045C363F55E24,IMPHASH=192CF98320740B7D296297054A9C3EEA"
C:\Windows\System32\profapi.dll
"SHA1=9E91D74D5B9BF64A3D4BE8C5EA3594F5DA2BC299,MD5=2839609118F48DEA292084E43FAA72D8,SHA256=4FC9460147D5A3AA1F9498863CF10BB7BE6099BEF1A3D55503164CA51E36E27E,IMPHASH=C5F30E6A06AB646153863B68366FE58A"
C:\Windows\System32\gdi32.dll
"SHA1=F4E9BF5181AFC3D57239241F4E0DF9FB6E7D6D0F,MD5=110F910867E0E0604BA1A9D561C23AB9,SHA256=152E10331C6824DEFF89335B316F2DA493AF62568C0F4C8D32079DADB605ABF7,IMPHASH=70F6F0466DB32D0AA9E18434AE996907"
C:\Windows\System32\user32.dll
"SHA1=D6BB3814528344679DEEBEE97124EA184706BFF6,MD5=BD26EDE412FFF3BFFB48CEFB2F3E0E40,SHA256=E86DB03E8B046C74D9C1EFCA5FA049C6105C88311A1393937DB4F738AA0EF063,IMPHASH=005299FA213F652A596AC31760C5340B"
C:\Windows\Microsoft.NET\Framework64\v4.0.30319\mscoreei.dll
"SHA1=A869ADD42103B754E62B5C816CD8BCE69654F308,MD5=7D362821F6C0243107A14189FF49176C,SHA256=F60F5AA4E11D2099A4D11026A6576898AFE81DAC567EF7564EEFBB79B255E534,IMPHASH=291B64B0984CCD3A091CF75D2A111D5D"
C:\Windows\Microsoft.NET\Framework64\v4.0.30319\diasymreader.dll
HKCR
HKLM\SOFTWARE\Microsoft\EnterpriseCertificates\Disallowed\CTLs
HKLM\SOFTWARE\Microsoft\EnterpriseCertificates\Disallowed\CRLs
"SHA1=A2D12FF45777950F1E84B4B97E387DD08CA21E9E,MD5=0365BBD35F91F2E3990A72DF66572586,SHA256=C1979FED6A92EB1864EC03F1ACEEDA4455D1FD498C460BD52E469054ACD7B953,IMPHASH=F7100EF886430CB1ABAF38BE7BB05DEF"
C:\Windows\System32\ntasn1.dll
"SHA1=F49964A73238B4FA6BE5C25E1060ABA6C0EEE52B,MD5=FF1EF5A267E237E061D6CF7655C61502,SHA256=53E8C9D12372004D56D489231C29134FCE6C39AE14F00682559E29D41DD4D7BD,IMPHASH=4458CB6DE6246C2447EE885DE013644D"
C:\Windows\System32\ncrypt.dll
"SHA1=CFCBF3389ED7975B7C8196640748650349E62C04,MD5=8D81996E1F1EEED666A21407372F033E,SHA256=6FC73B2240BFD2BBFEEA4CFD3F74DA0DFBE57F0E2D4BC073CA0E59E76B90C54C,IMPHASH=00000000000000000000000000000000"
C:\Windows\assembly\NativeImages_v4.0.30319_64\Microsoft.P521220ea#\415482eab2cad62fc2e51e85d36c1ee7\Microsoft.PowerShell.Commands.Utility.ni.dll
"SHA1=09310F93E62D8B8BCBBEA36CB3AAF78CB98798EF,MD5=D3102BD5CD3C24E02C68CF6770379402,SHA256=49BF93C5C4D0D4AEE050ED83193DCF3FCB08D50DB5F0B7740436B24B83D14023,IMPHASH=A4C20B1A7B632846186AD47A0810709E"
C:\Windows\System32\rsaenh.dll
"SHA1=20F79124CAF03B2DED236243BE70A18C93444656,MD5=255D13A3518672A178020736D3AD9FCC,SHA256=BEF221D9980AEB841562F4D195F6B3A6058D4A9745035D7E42DE3DEBB0D9A531,IMPHASH=14E15CE9180916E4E44532618B3ABC7C"
C:\Program Files\Windows Defender\MpClient.dll
"SHA1=7C3DD412DC1D4A0DAB3D59F56A1902C136848EDD,MD5=FADE8C903AA2924A6ED9D0261405F186,SHA256=85CB2884DCB2E1E93AD04148B0BBFFE17D8BCCA0BF27E9AC5BA1FE7AE69B1D9A,IMPHASH=B88676B268CF77D600BD3F359E469097"
C:\Windows\System32\gpapi.dll
"SHA1=6E80248FAA4F43FC7E532ABB2B8BDD78D9769600,MD5=5A776842CAE054D8D7C1ACB7A582E3CC,SHA256=2FD72F0AD516158E0DFBBC31C114F685D1B117318F9F184A2AF903744F1107AB,IMPHASH=1C67DA46DE146D5C03F7C75A4E4CCCA4"
C:\Windows\Microsoft.NET\assembly\GAC_64\System.Transactions\v4.0_4.0.0.0__b77a5c561934e089\System.Transactions.dll
"SHA1=B89ECF1A2AC8A7F9FEAD6B41F8B03E2CA5F4584F,MD5=096C3E4798023C6F10E5F8BA0B76A3C8,SHA256=F89F93382C2C452A6761942F61C9F2E2CAA992E4621E480F583062D2C4C95284,IMPHASH=00000000000000000000000000000000"
C:\Windows\assembly\NativeImages_v4.0.30319_64\System.Transactions\f7d17c851c17b3bf0e27e0e081516158\System.Transactions.ni.dll
"SHA1=4F2BDF7BF159B9DD22FBAC0836BAB1DBD04D3C17,MD5=AA1B908DBA31D7EEE28AD99E1EA20737,SHA256=DCC2504B8266417D7A577E9F21A4E2F2BA6C460F4A2D862A9B11543AB2FD86BA,IMPHASH=00000000000000000000000000000000"
C:\Windows\assembly\NativeImages_v4.0.30319_64\Microsoft.P6f792626#\1bfb22811ca3c55062c4ae962441882f\Microsoft.PowerShell.Security.ni.dll
"SHA1=37886A06EE74AA34F2F08E44652EE502BDEF4B16,MD5=5B19477B5E6EACED096D86AE669188B2,SHA256=0FC7B85BA085D50758F86301962B55E588BE71A1B88B025C0A0072668977C8CA,IMPHASH=E2C276219B6E4BFC3D8A2A21121AA515"
C:\Windows\Microsoft.NET\Framework64\v4.0.30319\clrjit.dll
C:\Windows\Microsoft.NET\assembly\GAC_64\System.Data\v4.0_4.0.0.0__b77a5c561934e089\System.Data.dll
"SHA1=B6093663113CF33A76156CB3F6D4322514F00E4B,MD5=26887DE7D7D1928F52A452E3A63E55E8,SHA256=EA86D9754164CA2C01B4A7F81188B2490CEE1F350E177861A4702C92DFD6D066,IMPHASH=3F27E242D68FC14338677A25FAE441F7"
C:\Windows\System32\cryptbase.dll
"SHA1=44371578AB75E3149D000426EF925BD7C99A4E8A,MD5=A94D8AACC39F0ECC957E6B4E75B9DD06,SHA256=1B952A736BBC03AF14AF4A84C5E177077F7F99263C2A1648D2593EBCA251FA0E,IMPHASH=00000000000000000000000000000000"
C:\Windows\assembly\NativeImages_v4.0.30319_64\System.Numerics\22ffc0f70cd2c1ea378d9486db97ef6a\System.Numerics.ni.dll
"SHA1=4FC83A49CAF9DDB81F85DE3CE3BFDE045531D67D,MD5=51F4292205987264D1443EB23EB7ACD3,SHA256=3270B99D8C3263E59E15B20C92A85AE0B7000F00F4E94741C295B8009B97C2DC,IMPHASH=00000000000000000000000000000000"
C:\Windows\assembly\NativeImages_v4.0.30319_64\System.Configuration\505c58eba2df2bce374cdc680ada8ba2\System.Configuration.ni.dll
"SHA1=0E12FE4F9CCFCC1FF9959F35D66DC37093B2F35E,MD5=5FFE7522AF61D05D64B94672BF65B985,SHA256=8FD5B3EA3777B42D5DE4EF641422B99F22CDF7337124077A0EEBE49CE5A542E0,IMPHASH=00000000000000000000000000000000"
C:\Windows\assembly\NativeImages_v4.0.30319_64\System.Xml\e41395757cb090f174fa453abf455e8d\System.Xml.ni.dll
"SHA1=31754790CF027E0AB1738A92FAFB67C7ADD619AD,MD5=C9CB6C1D6DF36857CA17CB14A5E43A3F,SHA256=D9B3BB2AC2CE939DD485EDDD1184684698A9D7CA2A04F4E79DC32B2E806077E3,IMPHASH=8EEA175C33205685FB8A14876D7564DB"
C:\Windows\System32\advapi32.dll
"SHA1=BA886908D65F143131EFF45AE07471038ECF3C81,MD5=AAEA18D57D5235D013A7FBE78F7D0C82,SHA256=526C60FDA53D5C8CA3905E50884D5CEE6F79964408CC1A61FBC4D5A2BA8BC7AB,IMPHASH=7F555C87AEA488E97B6067A0419ED3B4"
C:\Windows\System32\msvcp_win.dll
"SHA1=E586F0EA5A9A5D43DB11A51EC008C3A0712E2C11,MD5=1EAB848B772964F2D5FAD8C21C6BCA31,SHA256=A84A2D3807A24353344EDF30A6AB3F3CBE2F3FE2462AC9C1FC358A030D6D0054,IMPHASH=3D091FB4FD5D6B28DD662D5E66B7D20C"
C:\Windows\System32\gdi32full.dll
"SHA1=FA3A718BEED81C7084675E250ADC305677A6B5E4,MD5=3A99A40872AF3B87406CC57DBDF53748,SHA256=96A1DB38C74A81FBA4C4AB29020551364FD1ADA3B6FED789D193C787E757979D,IMPHASH=4B4464C7677B6F07342800F4CF0BA273"
C:\Windows\System32\cfgmgr32.dll
"SHA1=21F8222F23A631472DBEB7F0C889F5CAE5109918,MD5=4718D9C9C4157B952452C7656E1E7E2C,SHA256=11CA9622653664FC56333A72578BDDB031B437EED8EFD24BBC5DD449FA934CAF,IMPHASH=C78F4BB86ED001E78BABEFDE6D88440E"
C:\Windows\System32\shell32.dll
"SHA1=4985EC8C3309DB6CCCCFD4D18423A84E37BEC172,MD5=EDF981437C0FD1B9DBF9EA42CE97CE60,SHA256=42164F81BC8FC2D0A6B71DAA492BE6A6D4785821AA4FDCA27B9273721EDB23D9,IMPHASH=8899216954AA228EAA7E8EEDC31DBC03"
C:\Windows\System32\kernel.appcore.dll
"SHA1=D07A91C435C06B5FF58B90F7DB79CD588C24884A,MD5=5AD2A726902DC1E0978E6443508D9A38,SHA256=B5847D81115050F965E925947367F32F00A1AFAB1D7AFEAE7615C5C82D813889,IMPHASH=CE4BD072766253F6A267D0284CA82002"
C:\Windows\System32\sechost.dll
"SHA1=A677403206D2A6F4FF3110552F62ED5A11D8EE8D,MD5=86638D773CACED99E71F30FC3D790C44,SHA256=6C57F0798DC2ED8AE5D8818EF8738202DA1F2E53403934FDB51EB270B7142804,IMPHASH=00000000000000000000000000000000"
C:\Windows\assembly\NativeImages_v4.0.30319_64\System.Core\1dc2bb8a7bd8900c259e7b4be6327df9\System.Core.ni.dll
"SHA1=4907449E6799337824616EC474750E39FC08101E,MD5=5276CB223738ACD616BB16BA7A7362BB,SHA256=C897AC922E45E2B93D122F371A623DED05009884F2370D5825448E21F68596F8,IMPHASH=00000000000000000000000000000000"
C:\Windows\assembly\NativeImages_v4.0.30319_64\System\9803982d7bc887e2745bff18a434ece1\System.ni.dll
"SHA1=85016C22B692FD4F3CA20732240C16EE31450B57,MD5=6206506DDECBF5E5DD220507D4AB5504,SHA256=D0CEE8D015B4D4329FEF39AF9079155517360BD170E266E75C79AF81720E2488,IMPHASH=AFA0DB2E14A797EA10D25C2C2EDC4AB9"
C:\Windows\System32\ncryptsslp.dll
HKLM\System\CurrentControlSet\Control\SecurityProviders\SCHANNEL
"SHA1=E45DDC223A53802830C729ADDE78F70AE5EBA97E,MD5=D2FFB64A7CB814B680C7FA7C7181F1DB,SHA256=0BE6383A65B3BD3DA93F373DD04DACE8CDC868B7BBD1D0CA56912E0ABD4BF32F,IMPHASH=EE29DA81355C13DA2F9BBA37D3F3B408"
C:\Windows\System32\dhcpcsvc.dll
"SHA1=BD38A22DF845475BEBCEA0E8DEC209DA33231ADC,MD5=89CB3CA2A5206EDC77FBD3A895EBFEFF,SHA256=0EBF3FEF9068AF4566F087D626619C5218FC23B4A11F76F6A8B094D083E49A2F,IMPHASH=A08BF41263E3776AD11E1600C12BCA60"
C:\Windows\System32\dhcpcsvc6.dll
"SHA1=CB0FED80A33581425BBEA334D9185F63C5EE315F,MD5=9D1E318E09783AFBBF2F51D6E9950662,SHA256=48C0E264A522173740EBD7627900BE7E6FEDAEE2264F67A00E78D4A6D76865D8,IMPHASH=83BEA6248DF8A10A1D9DF229B452B69F"
C:\Windows\System32\OnDemandConnRouteHelper.dll
"SHA1=E52218F7D25097F6A72581A527A5EF77C0E22EA2,MD5=7F6072D7837515D1AF89D9B5287BD1AD,SHA256=18F9862F8552F229486D9B7F023525D8E5FB70E89A43C17D7F6E260A89C07217,IMPHASH=744529C7923557B9DDE8E6A14A60CC82"
C:\Windows\System32\winhttp.dll
"SHA1=E91D4992CEAB856B581D67DBB0FAA56118BA087A,MD5=40E84651114DC2417E64A63B8BECA6B9,SHA256=6EEF43B294BE18A9C65BA73BE17BF42D06702537C5FE897807AE93130FE2238A,IMPHASH=00000000000000000000000000000000"
C:\Windows\assembly\NativeImages_v4.0.30319_64\mscorlib\ce65e35ae3e57af12f3515300d00e518\mscorlib.ni.dll
"SHA1=C67C3C415EBDFF8C51C80E09838EAD29F79CD57D,MD5=9FC24D5D3DE3179688A0A38AB074A965,SHA256=EFC5D34407732EAEB962B986569AE5C5CA94ABE42E19A5087A8555698A7FD9D3,IMPHASH=00000000000000000000000000000000"
C:\Windows\System32\ntdll.dll
"SHA1=BB449564B72F3687C311648D8E5C02EDD5D51D96,MD5=2C98AA00D1633E9AFAEAABA6CC87F287,SHA256=5DD8571132EF404927ADF7A1AC7EB26823D89271F62883F1E56C6EEEABC3D466,IMPHASH=F90C2A389F295606533D615109FB248B"
C:\Windows\System32\secur32.dll
"SHA1=6AB83620379FC69F80C0242105DDFFD7D98D5D9D,MD5=D17FE0A3F47BE24A6453E9EF58C94641,SHA256=96AD1146EB96877EAB5942AE0736B82D8B5E2039A80D3D6932665C1A4C87DCF7,IMPHASH=00000000000000000000000000000000"
"SHA1=C6027664D44C8579A0EF7F515E12A4542FD782CD,MD5=1C188194C6C1880FB7D9E6F54383FF40,SHA256=0A6947B24CAED32006E86DD83A29C1570DFE4ED363AE22D1277D9211430F73AD,IMPHASH=371B4EC2A6801A18FA86FD488786917F"
C:\Windows\System32\amsi.dll
"SHA1=730D77E5567EAA32B1746B739F40038ADCCB0DC3,MD5=BEF4D04BB9D627616070D66628AC7191,SHA256=36B41552BE0F17D4C0B4108951817C72E550F1DBB1165548E2217FC2580046AA,IMPHASH=26F5074076E239A05F85ED2BBA28B2CB"
C:\Program Files\Windows Defender\MpOAV.dll
"SHA1=5029F9119FE1D6679666C5DF2441EA656D39A6EE,MD5=8FFAA80338156FD443D34F4CE9BD8431,SHA256=696A78B8C7E32163E3752A8D73A13C70C12BBB05E20EB28295B786E5A88D7FDB,IMPHASH=65F23EFA1EB51A5DAAB399BFAA840074"
C:\Windows\System32\mscoree.dll
"SHA1=91389F3811257EAC7B32B8897F9C498851FFE962,MD5=BA380711ACDA591685CFBAF26676A51F,SHA256=57835DB16F427A773A12F456B3C6ED4CF587D7FC0E3D239106C04F49BF64DA5E,IMPHASH=75FE4D242CDB81C8FD19F8165A4D313D"
C:\Windows\System32\atl.dll
"SHA1=25A3D7E925E50A646A1BEE22F8FDD6BBB07FB07E,MD5=6081716F7EA0FE43231534DE73F6857E,SHA256=9FA85B4E57073BA44649B103DF8A048F0748C3329D6553FDB64EFFA2B5298D93,IMPHASH=75660DEE439E0444CAA3BB74E19C02F0"
C:\Windows\System32\urlmon.dll
HKU\.DEFAULT\Software\Microsoft\Windows\CurrentVersion\WinTrust\Trust Providers\Software Publishing
"SHA1=421C35E0949143DE72C8F98776565D24815AD47E,MD5=F46778029BE7D755EBDCDF048EA62A4B,SHA256=907A4D1D405283AD24BBA1F9A763C5118A33574F3E0EC7FC543F65B24CC0A748,IMPHASH=E5649DCD6FA9472DB9A89CCD123913C0"
C:\Windows\System32\bcrypt.dll
"SHA1=90F229FB5DB52DF3604195B10C48E946684929ED,MD5=ACE18C6797090A1AA259BB8713917F98,SHA256=F5E118F67745792909973717FAE1F9FE68B2619332A4451AD04E0C9072B8D605,IMPHASH=A9B9D04D0B53DC48ABB37BE77AD01B55"
C:\Windows\System32\cryptsp.dll
"SHA1=354FBAC912764BBF6595F97A59D5E32041926194,MD5=89D92079F45D2F2539BCD1EEF73A701E,SHA256=6DAE0B5BAC5B2C34FD313B51AC793B6F0C270DA01474E4D1016B119FC1F9CE8F,IMPHASH=A19426362F5443C7159B76FBEAFD171F"
C:\Windows\System32\psapi.dll
"SHA1=A9B4082F19C848C283D9A0A6B36D7610D62DC4AB,MD5=43E82F158D0151462E09AA15C6DED42C,SHA256=E07CECB1A2DDF8A7C65BF2AC82EF10E43E97787F501BA2A919706F8778E53AF1,IMPHASH=402DA460E2AC467F4489C588A9941032"
C:\Windows\System32\bcryptprimitives.dll
"SHA1=D2AD4D4A061147CA2102FD1198A1AB5E81089687,MD5=8282B62C9241DAD339EDCFEDB59A0B83,SHA256=775FAEA773B0A023C724A93A3692CE5A237DC8B4B7C5A93C95412A4493CAFAA0,IMPHASH=88E7E7C7FA90052EC162DD37F2B7C7BD"
C:\Windows\System32\rpcrt4.dll
"SHA1=0EA4B3CFB14E49CEC0D42FF0F1FA989E69647A8F,MD5=36354D9B5B0A58A4B9A19103852C00A2,SHA256=E5A863D3F4BFEFED7D73A7B1499F81B7235BC9AE3C108065041BCB8E5446B1BB,IMPHASH=1273683626EBBA703979F188A1E64237"
C:\Windows\System32\msvcrt.dll
"SHA1=3CB1C63FEA955C4A987F9B3140E2194536B3D533,MD5=620B370A4DC0CC959D99ECF39A77888F,SHA256=92E002843E178626138EA60441AFDD46729D01943443ABCE7275F0E0E3C15E11,IMPHASH=EE04B80B0375B4716981CFBD3F0E9003"
C:\Windows\System32\KernelBase.dll
"SHA1=6F760E5583E17EE8ACF5941811F98F357E329CD3,MD5=0F28BD01DC5E06F561E8C49FF4F5DDBE,SHA256=DC1BCAE0A3DD5ED5C91C1A26C8DC9DEF93CA9926D3335226803479D27C3C0377,IMPHASH=F9F97E60CFCD78BE051D9570C88FFB6F"
C:\Windows\System32\kernel32.dll
C:\windows\system32\WindowsPowerShell\v1.0\PowerShell.exe
\DAV RPC SERVICE
"SHA1=5C986A06C21B5CDCFD799E3B5CA475CE2AFF6058,MD5=435009D1DDC0365BFA34B8C8D3F85286,SHA256=2F94628F056FE65EA81351E134E59ECE813FEC5E8400C12D6DFA49DEFD126D01,IMPHASH=B0E49176FB29AC2D0ABB840B4C490D21"
C:\Windows\System32\ntmarta.dll
10.0.0.4
HKLM\SOFTWARE\Microsoft\Windows NT\CurrentVersion\Notifications\Data\418A073AA3BC3475
::ffff:10.0.0.4;
"SHA1=D0EE150A378534396DB943F7962BFEA117C68AAC,MD5=C9D3F6E6D372B4F5468039C1DFF6A88B,SHA256=C55AD879AF6CE5AE0A000D9A1F333939694D72ED68CBDF95F6993EAECDE8B039,IMPHASH=C3F6D260C369DB2F3138E1AE4A2C1172"
C:\Windows\System32\pcwum.dll
NEWYORK.dmevals.local
"SHA1=F6F1362271F7CF8EF802C51C5B530E159A185B6E,MD5=0DFABD2E337A43FF6EC16CB63A4BA0AF,SHA256=AEF6BB91B115EA644B7FE7123EF364B8084CD4F1AB385C7C4612228412114C12,IMPHASH=E6A479DE7217083B01C1C13298DC3954"
C:\Windows\System32\logoncli.dll
"SHA1=5859E2A34AFF0994787230619FDCBAD2984EF9AA,MD5=929AFBF6453DA8E969C7BBA44BCE0906,SHA256=1E32F6BFD882ACC2300F34D9A7D0D574A66075F4BDE70088C94954D464380327,IMPHASH=21667D44701C8F5F61867EF5B495ACBD"
C:\Windows\System32\apphelp.dll
"SHA1=816600016571929722A2E43185DBE94FEB046708,MD5=2F9444B55CDC2C66CD692D6088091EF4,SHA256=CAD38C9348FCA41FFD0C2E4D66A1FF5B7EA16DB4928B464AA69B1C166DAB039F,IMPHASH=33A7E8246AA2567F10F26281A5128C47"
C:\Windows\System32\dnsapi.dll
"SHA1=BB75CB27C951F7E5D34CC514D598E34E372B18D1,MD5=B1399C7BCC6AC3806A6B904212FAF547,SHA256=476A9BBB93F15181BF5C379BE141E0518439DFF7BB13B35A98698C85F2F092D9,IMPHASH=5AE9A136FAFA10321F3D48251BF4F6A1"
C:\Windows\System32\ucrtbase.dll
"SHA1=8A1029D8251808C5A26245CE6D7A22747CB342D1,MD5=CA598B30066D74B291C7E31B29CC9456,SHA256=6A902C82B3D147DB49580655A3A4E71610EBE02C5AA0E3A95FFE3731F62ACD64,IMPHASH=00000000000000000000000000000000"
C:\Windows\System32\win32u.dll
"SHA1=1E81F9246CEEF88F4361792EC1F93D74D9C7B1F0,MD5=2661AB2C26F6FD9E3A868C58D408297E,SHA256=3DC331F24BBD33EA0712C3ED7AFC41956F1409360EF88CBDCF0C2E288AEDB1E6,IMPHASH=92380460EFEFA520CA5B66A4164F2053"
C:\Windows\System32\msvcp110_win.dll
"SHA1=7965D4A2E57A263621662A921B7270B7B773FFEF,MD5=3E966F088D46A0EB482E3DC4AF266C0F,SHA256=106C7873DB17E4542022245EEA148F815CE547C36523861DDDB50103C65D8B07,IMPHASH=1A813D04520E602A9E31CB5E06F81D1D"
C:\Windows\System32\sspicli.dll
"SHA1=13D34F2596A43A2467CFC901CEEBE8457B7F195F,MD5=85B87A7B4F529EC541818C241B8C0F43,SHA256=2505CBAB7459C0ECD8EDDCD3E2C09827B08D718BAF197AB24BB4E69B3948A27F,IMPHASH=3173150472840D83979F027AE2D1081C"
C:\Windows\System32\edputil.dll
HKLM\SOFTWARE\Microsoft
HKLM\SOFTWARE
"SHA1=671671341C184DB8598ED1B44C2A0ED6C056E511,MD5=843B05AE94E39352FEC3D5DC221F8245,SHA256=2E26B97C56C538508D0DC3EB97945839C55E57A144F1D5F84D799240D2182BEC,IMPHASH=00000000000000000000000000000000"
C:\Windows\assembly\NativeImages_v4.0.30319_64\System.Management\29b0de6ac17454900fabadc529281870\System.Management.ni.dll
"SHA1=EA1060EB94D3B5A62EC7A503552B2B21D8EC5A3B,MD5=A3FAA9B1F4599AD166CD873DCAFC2A14,SHA256=6E17C1E1A75EEB3BCA64020C4B152EB9D0E4E32EF8D13BBA936FFAD76B3E793C,IMPHASH=00000000000000000000000000000000"
C:\Windows\assembly\NativeImages_v4.0.30319_64\Microsoft.Mf49f6405#\a865189c5969920765b1604ac80e33ef\Microsoft.Management.Infrastructure.ni.dll
"SHA1=2D892AF511A816125D1F37926EC2EC15B0E34E92,MD5=0D046180B21EBD6FF6AAD7F355D51D11,SHA256=824015564C3DA62B29608F6B22F60CFCAF765E5EBF86D2053E6991123D66766D,IMPHASH=B97ACA6AAD7CC4518BF3E1A8B772380A"
C:\Windows\System32\wintrust.dll
"SHA1=A41B65A11638C58B99039B5099D4229E33761541,MD5=7EBFDCF78039F8A62E76687F29973FDE,SHA256=DC80D03DBCBB7D276E6D14EC19EAF6A31C6BE4EEFE8562FDF086BF73DF3BE5F6,IMPHASH=E20DAD2DC874B17CCC1F3ED8FB387E79"
C:\Windows\System32\OneCoreCommonProxyStub.dll
DMEVALS\pbeesly
C:\Users\pbeesly\AppData\Local\Microsoft\Windows\PowerShell\StartupProfileData-Interactive
C:\Users\pbeesly\AppData\Local\Microsoft\Windows\PowerShell\ModuleAnalysisCache
10.0.1.6
HKU\S-1-5-21-1830255721-3727074217-2423397540-1107\Software\Microsoft\Windows\CurrentVersion\Internet Settings\Connections
C:\Windows\System32\samcli.dll
"SHA1=18E6AFD6B9FEB79D872298A7F8800BFB28B14BA6,MD5=BA0B10749BAE470BD0AB33ED3E0ACA71,SHA256=B048B7037474926559CBF17BB19F3E7D571A2456823568E6068E50407E471120,IMPHASH=EE4C0C2CFFD7F999EC0FAF1376D518DD"
powershell.exe
C:\windows\system32\wsmprovhost.exe
"SHA1=0E931ED820C96CCAD23D4AFCB0ACD97C99155D11,MD5=C0F8DA7568D2F1534E0ABB0E69DC3280,SHA256=E419A4BBDF1D5E0601E90BAFC1558DBD7414CD44E098B581C1915EF2C6E38D0B,IMPHASH=70D7A835AF4CA9F98A94AAF1B60BF88F"
C:\Windows\System32\ws2_32.dll
C:\Windows\System32\msasn1.dll
C:\Windows\System32\crypt32.dll
C:\Windows\System32\svchost.exe
"SHA1=C1907DBEAA74E03B73A2FE0D16F497EB6842F1D6,MD5=04E6358C6DD4B1A85241511F372413E4,SHA256=BA1520DC9D01CD4956D77AF9A90D5D998003E9371B7157010F80CF9368B21A54,IMPHASH=C4AB96EBAAEC4F9F1CA58498083E8E3B"
C:\Windows\System32\userenv.dll
C:\Windows\System32\windows.storage.dll
C:\Windows\System32\backgroundTaskHost.exe
C:\Windows\System32\WerFault.exe
C:\Windows\System32\BackgroundTransferHost.exe
C:\Windows\System32\ROUTE.EXE
C:\Windows\System32\rundll32.exe
C:\Windows\System32\smartscreen.exe
C:\windows\system32\svchost.exe
C:\windows\system32\route.exe
C:\windows\system32\conhost.exe
"SHA1=11996F32DD85863A8C3BFF6D520F788A9211C8F7,MD5=C5E9B1D1103EDCEA2E408E9497A5A88F,SHA256=BAF97B2A629723947539CFF84E896CD29565AB4BB68B0CEC515EB5C5D6637B69,IMPHASH=F8DD0EF565DE87D97ABF9C62EA63EC21"
\??\C:\windows\system32\conhost.exe 0xffffffff -ForceV1
C:\Windows\System32\conhost.exe
"""route.exe"" print"
"SHA1=D26C1576F7A2D7B21B314CE61DC29FBDBAC288F6,MD5=2498272DC48446891182747428D02A30,SHA256=9E9C7696859B94B1C33A532FA4D5C648226CF3361121DD899E502B8949FB11A6,IMPHASH=95110DF86CE2E63EB457CE5860C12E57"
C:\windows\system32\csrss.exe
C:\WindowsAzure\Packages\WaAppAgent.exe
C:\Windows\System32\MicrosoftEdgeCP.exe
C:\Windows\SystemApps\Microsoft.MicrosoftEdge_8wekyb3d8bbwe\MicrosoftEdge.exe
C:\Windows\SystemApps\Microsoft.Windows.Cortana_cw5n1h2txyewy\SearchUI.exe
"SHA1=9414EC114C3389E0A7BC2FD986E00946E1A2A299,MD5=3929147A2A34B0902152C7D0F241B02A,SHA256=AD1C5309AA873F6A284EABE382812868E20C3D3D64197F3E6EF9D015EA060CAA,IMPHASH=6EC28633CC4ECB9F457795DD7E00B34B"
C:\Windows\System32\IPHLPAPI.DLL
C:\Windows\System32\AppHostRegistrationVerifier.exe
C:\windows\System32\svchost.exe
NT AUTHORITY\NETWORK SERVICE
C:\Windows\ServiceState\EventLog\Data\lastalive1.dat
0:0:0:0:0:0:0:1
HKLM\System\CurrentControlSet\Services\W32Time\Config\LastKnownGoodTime
HKLM\SOFTWARE\Microsoft\Windows\CurrentVersion\VFUProvider\StartTime
HKLM\SOFTWARE\Microsoft\Windows\CurrentVersion\VFUProvider
C:\Windows\System32\dpapi.dll
C:\Windows\Prefetch\TIWORKER.EXE-68D42234.pf
C:\Windows\Prefetch\TRUSTEDINSTALLER.EXE-3CC531E5.pf
C:\Windows\Prefetch\TASKHOSTW.EXE-3E0B74C8.pf
HKLM\SOFTWARE\Microsoft\Windows NT\CurrentVersion\Schedule\TaskCache\Tasks\{FA103B2E-5EB2-499F-9443-9765F29C7B5B}\DynamicInfo
HKLM\SOFTWARE\Microsoft\Windows NT\CurrentVersion\Schedule\TaskCache\Tasks\{FA103B2E-5EB2-499F-9443-9765F29C7B5B}
HKU\S-1-5-20\Software\Microsoft\Windows\CurrentVersion\DeliveryOptimization\Config\DODownloadMode
HKU\S-1-5-20\Software\Microsoft\Windows\CurrentVersion\DeliveryOptimization\Config\DownloadMode_BackCompat
HKLM\SOFTWARE\Microsoft\Windows\CurrentVersion\AppModel\StateRepository\Cache\Metadata
"SHA1=F36BA9B7CD32E26F6E373649FCC358FE856BAB9E,MD5=AD80DA5123056EBAA7FCEF8E2EF546A1,SHA256=057FCAD785AF1151C4F6D712086A80F42B6ED03B90AAC078CD860B8F6AF87E87,IMPHASH=00000000000000000000000000000000"
C:\Windows\ServiceState\EventLog\Data\lastalive0.dat
C:\Windows\Prefetch\WMIPRVSE.EXE-1628051C.pf
C:\Windows\Prefetch\POWERSHELL.EXE-920BBA2A.pf
HKU\S-1-5-19\Software\Microsoft\Windows\CurrentVersion\Internet Settings\Wpad
C:\Windows\Prefetch\DLLHOST.EXE-82BE5716.pf
HKU\S-1-5-21-1719095684-3458891352-3955206944-1109\Software\Microsoft\Windows NT\CurrentVersion\HostActivityManager
HKU\S-1-5-21-1719095684-3458891352-3955206944-1109\Software\Microsoft\Windows NT\CurrentVersion\HostActivityManager\Volatile
C:\Windows\Prefetch\CONTROL.EXE-817F8F1D.pf
C:\Windows\Prefetch\CONSENT.EXE-531BD9EA.pf
HKLM\SOFTWARE\Microsoft\Windows NT\CurrentVersion\ProfileService\References
C:\Windows\Prefetch\CSC.EXE-67679278.pf
C:\Windows\Prefetch\CVTRES.EXE-F2B7602E.pf
C:\Windows\Prefetch\RUNTIMEBROKER.EXE-E560E5BD.pf
C:\Windows\Prefetch\CMD.EXE-4A81B364.pf
HKLM\SOFTWARE\Microsoft\Windows NT\CurrentVersion\Notifications\Data\418A073AA3BC1C75
C:\Windows\Prefetch\COLLECTGUESTLOGS.EXE-9EAA1E6B.pf
C:\Windows\Prefetch\SPPSVC.EXE-B0F8131B.pf
C:\Windows\Prefetch\CONHOST.EXE-1F3E9D7E.pf
HKLM\SOFTWARE\Microsoft\SecurityManager\CapAuthz
HKLM\SOFTWARE\Microsoft\SecurityManager
HKLM\SOFTWARE\Microsoft\Windows NT\CurrentVersion\Schedule\TaskCache\Tasks\{E4AEB720-7F18-419F-A20E-6E0B5C4ED968}\DynamicInfo
HKLM\SOFTWARE\Microsoft\Windows NT\CurrentVersion\Schedule\TaskCache\Tasks\{E4AEB720-7F18-419F-A20E-6E0B5C4ED968}
C:\Windows\System32\sru\SRUtmp.log
C:\Windows\System32\sru\tmp.edb
\Device\HarddiskVolume2
HKLM\SOFTWARE\Microsoft\Windows\CurrentVersion\Diagnostics\DiagTrack\SettingsRequests\LastDownloadTime
HKLM\SOFTWARE\Microsoft\Windows\CurrentVersion\Diagnostics\DiagTrack\SettingsRequests
"SHA1=A830BCAB9BE17968286E9DE7D40CE7169D04B140,MD5=CBD797C153711690954BCF807FA3F257,SHA256=59262DB1A4751C475E0491122A67DA273144192F3237B7B2A38A71268A75934C,IMPHASH=6812E9B924D76B6655AC3852CB805FD3"
C:\Windows\System32\Unistore.dll
HKU\S-1-5-21-1719095684-3458891352-3955206944-1109\Software\Microsoft\Windows\CurrentVersion\StorageSense\Parameters\StoragePolicy
HKU\S-1-5-21-1719095684-3458891352-3955206944-1109\Software\Microsoft\Windows\CurrentVersion\StorageSense\Parameters\CachedSizes
HKLM\SOFTWARE\Microsoft\Windows\CurrentVersion\Group Policy\ServiceInstances
"SHA1=2007AA736C180F504F888189840E849D96890AA8,MD5=661C34CF240399D4110F30D6AA91B897,SHA256=470BD56F04874AAB51E45D572AAEC40444638B5603BA3869E194BEAD5A1A1796,IMPHASH=CCE081B2CD63A4748D0D48558A5EFC31"
C:\Windows\System32\iuilp.dll
C:\Windows\Prefetch\SEARCHFILTERHOST.EXE-77482212.pf
HKU\S-1-5-21-1719095684-3458891352-3955206944-1109\Software\Microsoft\Windows NT\CurrentVersion\BackgroundModel\PreInstallTasks\RequireReschedule\Microsoft.OneConnect_8wekyb3d8bbwe\RetryRemaining
HKU\S-1-5-21-1719095684-3458891352-3955206944-1109\Software\Microsoft\Windows NT\CurrentVersion\BackgroundModel\PreInstallTasks\RequireReschedule\Microsoft.OneConnect_8wekyb3d8bbwe\TaskEntryPoint
HKU\S-1-5-21-1719095684-3458891352-3955206944-1109\Software\Microsoft\Windows NT\CurrentVersion\BackgroundModel\PreInstallTasks\RequireReschedule\Microsoft.OneConnect_8wekyb3d8bbwe
HKU\S-1-5-21-1719095684-3458891352-3955206944-1109\Software\Microsoft\Windows NT\CurrentVersion\BackgroundModel\PreInstallTasks\RequireReschedule
HKU\S-1-5-21-1719095684-3458891352-3955206944-1109
"SHA1=6495B6612F8E92759FE75D28CE456FA6314D13BB,MD5=3975AF80B5E031CD0B0BB589C1794D57,SHA256=37D20339081A24AA8DAC632CB8E735307148B9D3094A5F96D67877EF401DC49C,IMPHASH=5DF99858BAFC2428A5F4818677D84321"
C:\Windows\System32\execmodelproxy.dll
"SHA1=E3150FD33A69E10D5846A67D00D05191F54C19C2,MD5=F4F984BAFB9ACAEBF4B6CC6801DF7E66,SHA256=3D529120555D170F690D4B2AB6511698E03366F2DDF433FF23D44FF51171C18E,IMPHASH=42CBF815FA5AC73640BAA61904133E72"
C:\Windows\System32\rmclient.dll
"SHA1=7887DC175F32F5D12C39C214EC6919274EA8C7BA,MD5=B19811B206C150C238C9321C1D46D37A,SHA256=72D9ADD0A7F2E9ED2FD338D9D606E169ED18169FF88F55123FC10030DA6BE729,IMPHASH=4C3FA874E14BCE243EC9E5BA9E661936"
C:\Windows\System32\StateRepository.Core.dll
"SHA1=7D4098558E68266C7F0EED6E45339CDEF6F30E46,MD5=36DB8D31EA7D55CD1C6D377DF1E84EAC,SHA256=E69BE9BE1924D0BD5AB51DAEC9F814ECA8CFABCA848A8C15D4A67E08205D0F37,IMPHASH=05070AC3A32B47194BCB1B24B709BE5A"
C:\Windows\System32\AppXDeploymentClient.dll
"SHA1=75C5A97F521F760E32A4A9639A653EED862E9C61,MD5=9520A99E77D6196D0D09833146424113,SHA256=DD191A5B23DF92E12A8852291F9FB5ED594B76A28A5A464418442584AFD1E048,IMPHASH=247B9220E5D9B720A82B2C8B5069AD69"
HKU\S-1-5-21-1719095684-3458891352-3955206944-1109\Software\Microsoft\Windows\CurrentVersion\CapabilityAccessManager\ConsentStore
HKLM\SOFTWARE\Microsoft\Windows\CurrentVersion\CapabilityAccessManager\ConsentStore
HKLM\SOFTWARE\Microsoft\Windows\CurrentVersion\CapabilityAccessManager\Capabilities
HKLM\SOFTWARE\Microsoft\Windows\CurrentVersion\WindowsUpdate\Orchestrator\Scheduler\UserAwaySignal
HKLM\SOFTWARE\Microsoft\Windows\CurrentVersion\WindowsUpdate\Orchestrator\Scheduler
C:\Users\mscott\AppData\Local\Comms\Unistore\data\AggregateCache.uca
C:\Windows\Prefetch\SVCHOST.EXE-70B17AB6.pf
C:\Windows\Prefetch\SVCHOST.EXE-5D81D0E4.pf
HKLM\SOFTWARE\Microsoft\Windows NT\CurrentVersion\Schedule\TaskCache\Tasks\{DAE12BEE-AF8C-4826-8A2D-E22471168A4D}\DynamicInfo
HKLM\SOFTWARE\Microsoft\Windows NT\CurrentVersion\Schedule\TaskCache\Tasks\{DAE12BEE-AF8C-4826-8A2D-E22471168A4D}
HKU\S-1-5-21-1719095684-3458891352-3955206944-1109\Software\Microsoft\Windows\CurrentVersion\Internet Settings\Connections
HKU\S-1-5-21-1719095684-3458891352-3955206944-1109\Software\Microsoft\Windows\CurrentVersion\Explorer\Package Installation\PackageListVersion
HKU\S-1-5-21-1719095684-3458891352-3955206944-1109\Software\Microsoft\Windows\CurrentVersion\Explorer\Package Installation
HKU\S-1-5-21-1719095684-3458891352-3955206944-1109\Software\Microsoft\Windows\CurrentVersion\Explorer\Package Installation\Microsoft.BingWeather_8wekyb3d8bbwe\InstallProgress
HKU\S-1-5-21-1719095684-3458891352-3955206944-1109\Software\Microsoft\Windows\CurrentVersion\Explorer\Package Installation\Microsoft.BingWeather_8wekyb3d8bbwe
"SHA1=3F52899645E1A0562B33031D8CFFB87BFB44E6BF,MD5=10E2408C2CA4F393616B08A847285654,SHA256=4A4153334BAD94B39EE6C7D588D6452F405286662BB42943070C3DF7AF64F989,IMPHASH=3EF49CD160223CFFBAED2BAABF7ABFC0"
C:\Windows\System32\MdmCommon.dll
"SHA1=3853BE032EDBD2A469B698641D0F51DF3B9CFBA6,MD5=947A5110BA01838C08B1BCEFD3E51620,SHA256=357991BEC52866DFF9BE3156A56DA88137409A28BFC2817BB4256FB277DC72D8,IMPHASH=9C3925237CEAE02A835AA522C0E82A9E"
C:\Windows\System32\LocationWinPalMisc.dll
"SHA1=A0DA12E5DBE104959EE476F12FE63BA806EEC7FF,MD5=B59AFF332AF38FD472FE4FCE92242643,SHA256=3C079BAE94E2CE9C252B7CDC2F09A1C7AB6800C76472E27E80F6B1A319031273,IMPHASH=447F0775F553C78E0D9E8F85CDE9E875"
C:\Windows\System32\devobj.dll
"SHA1=D10192212E2D342BB7EB8C85C876CEA94EE824F8,MD5=727673EC5D0CD9B726D8F2CFBDC747AB,SHA256=4C67CDC79D8EB20EE49DEF0D8CB5126D5BF660C7BF5E25D17DD6FC48C2902F5E,IMPHASH=F830D7ACFCD0C9974048B2C1271F3E86"
C:\Windows\System32\coml2.dll
HKU\S-1-5-21-1719095684-3458891352-3955206944-1109_Classes\Local Settings\Software\Microsoft\Windows\CurrentVersion\AppModel\SystemAppData
C:\Program Files\WindowsApps\Microsoft.BingWeather_4.25.20211.0_x64__8wekyb3d8bbwe\microsoft.system.package.metadata\resources.29e797f3.pri
HKU\S-1-5-21-1719095684-3458891352-3955206944-1109_Classes\Local Settings\Software\Microsoft\Windows\CurrentVersion\AppModel\Repository\Packages\Microsoft.BingWeather_4.25.20211.0_x64__8wekyb3d8bbwe\PackageStatus
HKLM\SOFTWARE\Microsoft\Windows\CurrentVersion\AppModel\Origins\XVpHYgUmNFoWv0F5YrXsqr5+KlydXgByo82Z3MUzsAo
HKLM\SOFTWARE\Microsoft\Windows\CurrentVersion\AppModel\Origins\lg4Bb+Rd6nZHVE8Yicc7CZoO5+wSkReyeK3fRrBvnfs
HKLM\SOFTWARE\Microsoft\Windows\CurrentVersion\AppModel\Origins\iLyF2WbAdu7QMtcKYkM9iyuAp/qWdM6VmXHg/kRgpoQ
C:\Windows\AppReadiness\S-1-5-21-1719095684-3458891352-3955206944-1109
C:\Users\mscott\AppData\Local\Microsoft\WindowsApps\Microsoft.DesktopAppInstaller_8wekyb3d8bbwe\python3.exe
C:\Users\mscott\AppData\Local\Microsoft\WindowsApps\python3.exe
C:\Users\mscott\AppData\Local\Microsoft\WindowsApps\Microsoft.DesktopAppInstaller_8wekyb3d8bbwe\python3.7.exe
C:\Users\mscott\AppData\Local\Microsoft\WindowsApps\Microsoft.DesktopAppInstaller_8wekyb3d8bbwe
C:\Users\mscott\AppData\Local\Microsoft\WindowsApps\python3.7.exe
HKLM\SOFTWARE\Microsoft\Windows NT\CurrentVersion\Notifications\Data\418B1D29A3BC1475
HKU\S-1-5-21-1719095684-3458891352-3955206944-1109_Classes\Local Settings\Software\Microsoft\Windows\CurrentVersion\AppModel\Repository\Families\Microsoft.DesktopAppInstaller_8wekyb3d8bbwe
HKU\S-1-5-21-1719095684-3458891352-3955206944-1109_Classes\Local Settings\Software\Microsoft\Windows\CurrentVersion\AppModel\Repository\Families\Microsoft.DesktopAppInstaller_8wekyb3d8bbwe\Microsoft.DesktopAppInstaller_1.0.30251.0_x64__8wekyb3d8bbwe
HKU\S-1-5-21-1719095684-3458891352-3955206944-1109_Classes\Local Settings\Software\Microsoft\Windows\CurrentVersion\AppModel\Repository\Families\Microsoft.DesktopAppInstaller_8wekyb3d8bbwe\Microsoft.DesktopAppInstaller_1.0.30251.0_x64__8wekyb3d8bbwe\InstallTime
HKU\S-1-5-21-1719095684-3458891352-3955206944-1109_Classes\Local Settings\Software\Microsoft\Windows\CurrentVersion\AppModel\Repository\Families\Microsoft.DesktopAppInstaller_8wekyb3d8bbwe\Microsoft.DesktopAppInstaller_1.0.30251.0_x64__8wekyb3d8bbwe\Flags
HKU\S-1-5-21-1719095684-3458891352-3955206944-1109_Classes\Local Settings\Software\Microsoft\Windows\CurrentVersion\AppModel\Repository\Packages\Microsoft.DesktopAppInstaller_1.0.30251.0_x64__8wekyb3d8bbwe\PackageStatus
"SHA1=605CFE18781331ACC111D2EB1FDCE9267B75BFEA,MD5=D3B6A30AF474B4D1811AE23CB98C3C16,SHA256=6A12C7423BEB84023AEE90554B02E1952D77D4B4F4E97EA5C913202B9639E9FC,IMPHASH=7148F7A7CB41746E3ED0CC88A5EBD67E"
C:\Windows\System32\AudioSes.dll
HKLM\SOFTWARE\Microsoft\Windows\CurrentVersion\AppModel\Origins\uphnKJKw6vWaGD04huB5Stzb672qS4gAriUbhs9NyvU
HKLM\SOFTWARE\Microsoft\Windows\CurrentVersion\AppModel\Origins\Cb8o5qF0CJE/ERDFBYlSa8gVnnuj+AF2AlNyi47hi8w
HKLM\SOFTWARE\Microsoft\Windows\CurrentVersion\AppModel\Origins\V6MQsDVSbYopeapc6Q81907dxm8G0zV3fzvp6VT/olI
HKU\S-1-5-21-1719095684-3458891352-3955206944-1109\Software\Microsoft\Poom\Indexing\TrackedStores
HKU\S-1-5-21-1719095684-3458891352-3955206944-1109\Software\Microsoft\Poom\Indexing
"SHA1=AF09A383CB7655720D0EB62FF97BE6F0A80134BF,MD5=762DB0A5A2944B83336C6CD09895D006,SHA256=E5EF97E505F61F891C6AABCF55D7BCC0287BE90DF255AC690EA3780D4CB2B031,IMPHASH=FDC1DBA7128C131E5046D1D3102F7A1C"
C:\Windows\System32\Windows.StateRepositoryClient.dll
"SHA1=6568746F4670B16F8E338130A397A482DEB792B3,MD5=D314A717FA9630AD081C6BDEB4C61016,SHA256=41ED39261F76565961742935CC0E22CF59ED9E35F1FA16626DC306A671665002,IMPHASH=7A6EC8EB9E60CF692697563F6BBC47D9"
C:\Windows\System32\Windows.Shell.ServiceHostBuilder.dll
HKCR\Local Settings\Software\Microsoft\Windows\CurrentVersion\AppModel\PackageRepository\Packages\Microsoft.GetHelp_10.1706.13331.0_neutral_split.scale-125_8wekyb3d8bbwe
HKLM\SOFTWARE\Microsoft\Windows\CurrentVersion\AppModel\Origins\BVnQSa18p44xvJhgbiINhoUx8LIJuR5ijLmwBIL1VpQ
"SHA1=0DC0DE9D9F1F94A73B760E13DBFB033D58B2962C,MD5=09EB72768015735E81D549D7A5087631,SHA256=803200FACEF08EB731BCEB63813C1C873628A271ADA9661DDA6BB4B638CCB5F8,IMPHASH=00000000000000000000000000000000"
C:\ProgramData\Microsoft\Windows\AppRepository\Microsoft.GetHelp_10.1706.13331.0_neutral_split.scale-125_8wekyb3d8bbwe.xml
HKU\S-1-5-21-1719095684-3458891352-3955206944-1109_Classes\Local Settings\Software\Microsoft\Windows\CurrentVersion\AppModel\Repository\Packages\Microsoft.GetHelp_10.1706.13331.0_x64__8wekyb3d8bbwe\PackageStatus
C:\Program Files\WindowsApps\Microsoft.GetHelp_10.1706.13331.0_x64__8wekyb3d8bbwe\microsoft.system.package.metadata\resources.82520e7b.pri
HKU\S-1-5-21-1719095684-3458891352-3955206944-1109\Software\Microsoft\Windows NT\CurrentVersion\TileDataModel\Migration\TileStore\Completed
HKU\S-1-5-21-1719095684-3458891352-3955206944-1109\Software\Microsoft\Windows NT\CurrentVersion\TileDataModel\Migration\TileStore
"SHA1=830E86EAB887100E1FC051909455F4F7A15FAD20,MD5=672A46F3BFC7769ED825798F76D7C7A9,SHA256=E89FF0FBA8EB446F0E8EE94EE37F16CF192740566271B9404679DC92FB8E8926,IMPHASH=00000000000000000000000000000000"
HKU\S-1-5-21-1719095684-3458891352-3955206944-1109\Software\Microsoft\Windows\CurrentVersion\Search\InstalledPackagedAppsRevision
HKLM\SOFTWARE\Microsoft\Windows\CurrentVersion\Appx\AppxAllUserStore\Staged\Microsoft.HEIFImageExtension_8wekyb3d8bbwe
HKLM\SOFTWARE\Microsoft\Windows\CurrentVersion\Appx\AppxAllUserStore\Staged\Microsoft.HEIFImageExtension_8wekyb3d8bbwe\Microsoft.HEIFImageExtension_1.0.13472.0_x64__8wekyb3d8bbwe
HKLM\SOFTWARE\Microsoft\Windows\CurrentVersion\Appx\AppxAllUserStore\Staged\Microsoft.HEIFImageExtension_8wekyb3d8bbwe\Microsoft.HEIFImageExtension_1.0.13472.0_x64__8wekyb3d8bbwe\Microsoft.VCLibs.140.00_14.0.26706.0_x64__8wekyb3d8bbwe
HKU\S-1-5-21-1719095684-3458891352-3955206944-1109_Classes\Local Settings\Software\Microsoft\Windows\CurrentVersion\AppModel\Repository\Packages\Microsoft.HEIFImageExtension_1.0.13472.0_x64__8wekyb3d8bbwe\PackageStatus
HKCR\Local Settings\Software\Microsoft\Windows\CurrentVersion\AppModel\PackageRepository\Packages\Microsoft.HEIFImageExtension_1.0.13472.0_x64__8wekyb3d8bbwe\Path
HKCR\Local Settings\Software\Microsoft\Windows\CurrentVersion\AppModel\PackageRepository\Packages\Microsoft.HEIFImageExtension_1.0.13472.0_x64__8wekyb3d8bbwe
HKU\S-1-5-21-1719095684-3458891352-3955206944-1109_Classes\Local Settings\Software\Microsoft\Windows\CurrentVersion\AppModel\Repository\Packages\Microsoft.Messaging_4.1901.10241.0_x64__8wekyb3d8bbwe\PackageStatus
HKU\S-1-5-21-1719095684-3458891352-3955206944-1109_Classes\Local Settings\Software\Microsoft\Windows\CurrentVersion\AppModel\Repository\Families\Microsoft.Messaging_8wekyb3d8bbwe
HKU\S-1-5-21-1719095684-3458891352-3955206944-1109_Classes\Local Settings\Software\Microsoft\Windows\CurrentVersion\AppModel\Repository\Families
HKU\S-1-5-21-1719095684-3458891352-3955206944-1109_Classes\Local Settings\Software\Microsoft\Windows\CurrentVersion\AppModel\Repository\Families\Microsoft.Messaging_8wekyb3d8bbwe\Microsoft.Messaging_4.1901.10241.0_x64__8wekyb3d8bbwe
HKU\S-1-5-21-1719095684-3458891352-3955206944-1109_Classes\Local Settings\Software\Microsoft\Windows\CurrentVersion\AppModel\Repository\Families\Microsoft.Messaging_8wekyb3d8bbwe\Microsoft.Messaging_4.1901.10241.0_x64__8wekyb3d8bbwe\InstallTime
HKU\S-1-5-21-1719095684-3458891352-3955206944-1109_Classes\Local Settings\Software\Microsoft\Windows\CurrentVersion\AppModel\Repository\Families\Microsoft.Messaging_8wekyb3d8bbwe\Microsoft.Messaging_4.1901.10241.0_x64__8wekyb3d8bbwe\Flags
HKLM\SOFTWARE\Microsoft\Windows\CurrentVersion\AppModel\StateRepository\Cache\PackageUser
HKU\S-1-5-21-1719095684-3458891352-3955206944-1109\Software\Microsoft\Windows\CurrentVersion\Explorer\Package Installation\Microsoft.Messaging_8wekyb3d8bbwe\InstallProgress
HKU\S-1-5-21-1719095684-3458891352-3955206944-1109\Software\Microsoft\Windows\CurrentVersion\Explorer\Package Installation\Microsoft.Messaging_8wekyb3d8bbwe
HKLM\SOFTWARE\Microsoft\Windows\CurrentVersion\AppModel\Origins\BR2RXszAFaMpXQB8U8Gb0Pjei3V1kcmidL7Hi7aO/sA
HKLM\SOFTWARE\Microsoft\Windows\CurrentVersion\AppModel\Origins\M9tzLtJGnEn2+mfsVth9oy+/hi8E+wSGuRNGs14uhBc
HKLM\SOFTWARE\Microsoft\Windows\CurrentVersion\AppModel\Origins\DZ32A1er1MtFPxVhwGTdc+6egGTWKQMcNshkofUMTwg
HKU\S-1-5-21-1719095684-3458891352-3955206944-1109_Classes\Local Settings\Software\Microsoft\Windows\CurrentVersion\AppModel\Repository\Packages\Microsoft.Microsoft3DViewer_5.1902.20012.0_x64__8wekyb3d8bbwe\PackageStatus
"SHA1=684CD9D21FA5B93B834635C1143350D9C4F8FB79,MD5=B76FC730A80BAAD252DFFCD7FD18F744,SHA256=920BDB6680EA781B79AE21A02F65C4DE01B361E1FE751D17D3BD66F8AD652E4D,IMPHASH=12E91C58700B22EB77EA84797CEED52D"
C:\Windows\System32\srpapi.dll
HKLM\SOFTWARE\Microsoft\Windows\CurrentVersion\AppModel\StateChange\PackageVersion
HKU\S-1-5-21-1719095684-3458891352-3955206944-1109_Classes\Local Settings\Software\Microsoft\Windows\CurrentVersion\AppModel\Repository\Families\Microsoft.MicrosoftOfficeHub_8wekyb3d8bbwe\Microsoft.MicrosoftOfficeHub_18.1901.1141.0_x64__8wekyb3d8bbwe\InstallTime
HKU\S-1-5-21-1719095684-3458891352-3955206944-1109_Classes\Local Settings\Software\Microsoft\Windows\CurrentVersion\AppModel\Repository\Families\Microsoft.MicrosoftOfficeHub_8wekyb3d8bbwe\Microsoft.MicrosoftOfficeHub_18.1901.1141.0_x64__8wekyb3d8bbwe\Flags
HKU\S-1-5-21-1719095684-3458891352-3955206944-1109_Classes\Local Settings\Software\Microsoft\Windows\CurrentVersion\AppModel\Repository\Families\Microsoft.MicrosoftOfficeHub_8wekyb3d8bbwe\Microsoft.MicrosoftOfficeHub_18.1901.1141.0_x64__8wekyb3d8bbwe
HKU\S-1-5-21-1719095684-3458891352-3955206944-1109_Classes\Local Settings\Software\Microsoft\Windows\CurrentVersion\AppModel\Repository\Families\Microsoft.MicrosoftOfficeHub_8wekyb3d8bbwe
C:\Program Files\WindowsApps\Microsoft.MicrosoftOfficeHub_18.1901.1141.0_x64__8wekyb3d8bbwe\microsoft.system.package.metadata\resources.fa2ad34b.pri
HKU\S-1-5-21-1719095684-3458891352-3955206944-1109_Classes\Local Settings\Software\Microsoft\Windows\CurrentVersion\AppModel\Repository\Packages\Microsoft.MicrosoftOfficeHub_18.1901.1141.0_x64__8wekyb3d8bbwe\PackageStatus
HKCR\Local Settings\Software\Microsoft\Windows\CurrentVersion\AppModel\PackageRepository\Packages\Microsoft.MicrosoftOfficeHub_18.1901.1141.0_neutral_split.scale-100_8wekyb3d8bbwe\Path
HKCR\Local Settings\Software\Microsoft\Windows\CurrentVersion\AppModel\PackageRepository\Packages\Microsoft.MicrosoftOfficeHub_18.1901.1141.0_neutral_split.scale-100_8wekyb3d8bbwe
HKLM\SOFTWARE\Microsoft\Windows\CurrentVersion\AppModel\Origins\IdF1Fu6lnX1KOAyZh7x+dEhMUurQYYbwaN4UnkUU9ws
HKLM\SOFTWARE\Microsoft\Windows\CurrentVersion\AppModel\Origins\Tu62UJmkjn93zr7ySNSq/Pm39nCRNOCus6GAWYn6k3E
HKLM\SOFTWARE\Microsoft\Windows\CurrentVersion\AppModel\Origins\YIOby0nzlMzx8oy7a7fgZRhtASXBJzPcU7dCjC3ShGs
HKU\S-1-5-21-1719095684-3458891352-3955206944-1109\Software\Microsoft\Windows\CurrentVersion\Explorer\Package Installation\Microsoft.MicrosoftOfficeHub_8wekyb3d8bbwe\InstallProgress
HKU\S-1-5-21-1719095684-3458891352-3955206944-1109\Software\Microsoft\Windows\CurrentVersion\Explorer\Package Installation\Microsoft.MicrosoftOfficeHub_8wekyb3d8bbwe
HKU\S-1-5-21-1719095684-3458891352-3955206944-1109\Software
C:\Users\mscott\AppData\Local\Comms\UnistoreDB\store.vol
C:\Users\mscott\AppData\Local\Comms\UnistoreDB\store.jfm
C:\Users\mscott\AppData\Local\Comms\UnistoreDB\USStmp.jtx
C:\Users\mscott\AppData\Local\Comms\UnistoreDB
C:\Users\mscott\AppData\Local\Comms
HKU\S-1-5-21-1719095684-3458891352-3955206944-1109_Classes\Local Settings\Software\Microsoft\Windows\CurrentVersion\AppModel\Repository\Packages\Microsoft.MicrosoftSolitaireCollection_4.2.11280.0_x86__8wekyb3d8bbwe\PackageStatus
HKLM\SOFTWARE\Microsoft\Windows\CurrentVersion\AppModel\Origins\ZHVoqizNX2RpT8UAsl/SwLwElyg5ZDd0xgGlov1Y0kg
HKLM\SOFTWARE\Microsoft\Windows\CurrentVersion\AppModel\Origins\H11Ue/auMAFSqcXm7cRxVbnad4q4+vLCJ2Ln7sSOviY
C:\Program Files\WindowsApps\Microsoft.MicrosoftStickyNotes_3.1.53.0_x64__8wekyb3d8bbwe\microsoft.system.package.metadata\resources.c09e5559.pri
HKU\S-1-5-21-1719095684-3458891352-3955206944-1109_Classes\Local Settings\Software\Microsoft\Windows\CurrentVersion\AppModel\Repository\Packages\Microsoft.MicrosoftStickyNotes_3.1.53.0_x64__8wekyb3d8bbwe\PackageStatus
C:\Program Files\WindowsApps\Microsoft.MixedReality.Portal_2000.19010.1151.0_x64__8wekyb3d8bbwe\microsoft.system.package.metadata\resources.7ebad37e.pri
C:\ProgramData\Microsoft\Windows\AppRepository\Packages\Microsoft.MixedReality.Portal_2000.19010.1151.0_x64__8wekyb3d8bbwe\MixedRealityPortal_CustomCapability.can.xml
HKU\S-1-5-21-1719095684-3458891352-3955206944-1109\Software\Microsoft\Windows\CurrentVersion\Explorer\Package Installation\Microsoft.Office.OneNote_8wekyb3d8bbwe
HKU\S-1-5-21-1719095684-3458891352-3955206944-1109\Software\Microsoft\Windows\CurrentVersion\Explorer\Package Installation\Microsoft.Office.OneNote_8wekyb3d8bbwe\InstallProgress
HKLM\SOFTWARE\Microsoft\Windows\CurrentVersion\Appx\AppxAllUserStore\Staged\Microsoft.Office.OneNote_8wekyb3d8bbwe
HKLM\SOFTWARE\Microsoft\Windows\CurrentVersion\Appx\AppxAllUserStore\Staged\Microsoft.Office.OneNote_8wekyb3d8bbwe\Microsoft.Office.OneNote_16001.11126.20076.0_x64__8wekyb3d8bbwe
HKLM\SOFTWARE\Microsoft\Windows\CurrentVersion\Appx\AppxAllUserStore\Staged\Microsoft.Office.OneNote_8wekyb3d8bbwe\Microsoft.Office.OneNote_16001.11126.20076.0_x64__8wekyb3d8bbwe\Microsoft.VCLibs.140.00_14.0.26706.0_x64__8wekyb3d8bbwe
HKLM\SOFTWARE\Microsoft\Windows\CurrentVersion\Appx\AppxAllUserStore\Staged\Microsoft.Office.OneNote_8wekyb3d8bbwe\Microsoft.Office.OneNote_16001.11126.20076.0_neutral_~_8wekyb3d8bbwe
HKLM\SOFTWARE\Microsoft\Windows\CurrentVersion\Appx\AppxAllUserStore\Staged\Microsoft.Office.OneNote_8wekyb3d8bbwe\Microsoft.Office.OneNote_16001.11126.20076.0_neutral_~_8wekyb3d8bbwe\Microsoft.VCLibs.140.00_14.0.26706.0_x64__8wekyb3d8bbwe
HKU\S-1-5-21-1719095684-3458891352-3955206944-1109_Classes\Local Settings\Software\Microsoft\Windows\CurrentVersion\AppModel\Repository\Families\Microsoft.Office.OneNote_8wekyb3d8bbwe
HKU\S-1-5-21-1719095684-3458891352-3955206944-1109_Classes\Local Settings\Software\Microsoft\Windows\CurrentVersion\AppModel\Repository\Families\Microsoft.Office.OneNote_8wekyb3d8bbwe\Microsoft.Office.OneNote_16001.11126.20076.0_x64__8wekyb3d8bbwe
HKU\S-1-5-21-1719095684-3458891352-3955206944-1109_Classes\Local Settings\Software\Microsoft\Windows\CurrentVersion\AppModel\Repository\Families\Microsoft.Office.OneNote_8wekyb3d8bbwe\Microsoft.Office.OneNote_16001.11126.20076.0_x64__8wekyb3d8bbwe\InstallTime
HKU\S-1-5-21-1719095684-3458891352-3955206944-1109_Classes\Local Settings\Software\Microsoft\Windows\CurrentVersion\AppModel\Repository\Families\Microsoft.Office.OneNote_8wekyb3d8bbwe\Microsoft.Office.OneNote_16001.11126.20076.0_x64__8wekyb3d8bbwe\Flags
HKLM\SOFTWARE\Microsoft\Windows\CurrentVersion\AppModel\Origins\JQDlqV2m9HB0jIhCo+unjNI0pP8MVZLGB4L5guIzf6U
HKLM\SOFTWARE\Microsoft\Windows\CurrentVersion\AppModel\Origins\iMEdh+pL5ZCNUf2dKwJBC1qzSvEnXvp6GRbT1c6TcKc
C:\Program Files\WindowsApps\Microsoft.OneConnect_5.1902.361.0_x64__8wekyb3d8bbwe\microsoft.system.package.metadata\resources.8587a669.pri
HKU\S-1-5-21-1719095684-3458891352-3955206944-1109_Classes\Local Settings\Software\Microsoft\Windows\CurrentVersion\AppModel\Repository\Families\Microsoft.OneConnect_8wekyb3d8bbwe
HKU\S-1-5-21-1719095684-3458891352-3955206944-1109_Classes\Local Settings\Software\Microsoft\Windows\CurrentVersion\AppModel\Repository\Families\Microsoft.OneConnect_8wekyb3d8bbwe\Microsoft.OneConnect_5.1902.361.0_x64__8wekyb3d8bbwe
HKU\S-1-5-21-1719095684-3458891352-3955206944-1109_Classes\Local Settings\Software\Microsoft\Windows\CurrentVersion\AppModel\Repository\Families\Microsoft.OneConnect_8wekyb3d8bbwe\Microsoft.OneConnect_5.1902.361.0_x64__8wekyb3d8bbwe\InstallTime
HKU\S-1-5-21-1719095684-3458891352-3955206944-1109_Classes\Local Settings\Software\Microsoft\Windows\CurrentVersion\AppModel\Repository\Families\Microsoft.OneConnect_8wekyb3d8bbwe\Microsoft.OneConnect_5.1902.361.0_x64__8wekyb3d8bbwe\Flags
HKLM\SOFTWARE\Microsoft\Windows\CurrentVersion\AppModel\Origins\g8/gZKvZa+Rh0yDNo1Rw5A1NvXkPq/TCOn7HL2Oz6YM
HKLM\SOFTWARE\Microsoft\Windows\CurrentVersion\AppModel\Origins\SuOvA4Zsrsjj4nVgPmvIcrE6GFySfvj/bKuqq9PoJi4
HKLM\SOFTWARE\Microsoft\Windows\CurrentVersion\AppModel\Origins\4Rxnyzd1mIoGiVdjyGVoSLIe0d9q5wYpXZOOhj98QnA
HKU\S-1-5-21-1719095684-3458891352-3955206944-1109\Software\Microsoft\Windows\CurrentVersion\Explorer\Package Installation\Microsoft.OneConnect_8wekyb3d8bbwe\InstallProgress
HKU\S-1-5-21-1719095684-3458891352-3955206944-1109\Software\Microsoft\Windows\CurrentVersion\Explorer\Package Installation\Microsoft.OneConnect_8wekyb3d8bbwe
C:\Program Files\WindowsApps\Microsoft.People_10.1812.10232.0_x64__8wekyb3d8bbwe\microsoft.system.package.metadata\resources.2105bb9d.pri
HKU\S-1-5-21-1719095684-3458891352-3955206944-1109_Classes\Local Settings\Software\Microsoft\Windows\CurrentVersion\AppModel\Repository\Families\Microsoft.People_8wekyb3d8bbwe
HKU\S-1-5-21-1719095684-3458891352-3955206944-1109_Classes\Local Settings\Software\Microsoft\Windows\CurrentVersion\AppModel\Repository\Families\Microsoft.People_8wekyb3d8bbwe\Microsoft.People_10.1812.10232.0_x64__8wekyb3d8bbwe
HKU\S-1-5-21-1719095684-3458891352-3955206944-1109_Classes\Local Settings\Software\Microsoft\Windows\CurrentVersion\AppModel\Repository\Families\Microsoft.People_8wekyb3d8bbwe\Microsoft.People_10.1812.10232.0_x64__8wekyb3d8bbwe\InstallTime
HKU\S-1-5-21-1719095684-3458891352-3955206944-1109_Classes\Local Settings\Software\Microsoft\Windows\CurrentVersion\AppModel\Repository\Families\Microsoft.People_8wekyb3d8bbwe\Microsoft.People_10.1812.10232.0_x64__8wekyb3d8bbwe\Flags
HKU\S-1-5-21-1719095684-3458891352-3955206944-1109_Classes\Local Settings\Software\Microsoft\Windows\CurrentVersion\AppModel\Repository\Packages\Microsoft.People_10.1812.10232.0_x64__8wekyb3d8bbwe\PackageStatus
"SHA1=ACE50D4BB324D4DF023362E8A234A9272D148223,MD5=84A47645AA8D502213DB27F894294E42,SHA256=3CBDC6665E7AFA271289A8759CB63DEAF06AEE6691369422ECE4AB74766D61C3,IMPHASH=00000000000000000000000000000000"
C:\ProgramData\Microsoft\Windows\AppRepository\Microsoft.Print3D_3.3.311.0_neutral_split.scale-125_8wekyb3d8bbwe.xml
HKU\S-1-5-21-1719095684-3458891352-3955206944-1109_Classes\Local Settings\Software\Microsoft\Windows\CurrentVersion\AppModel\Repository\Packages\Microsoft.Print3D_3.3.311.0_x64__8wekyb3d8bbwe\PackageStatus
HKLM\SOFTWARE\Microsoft\Windows\CurrentVersion\AppModel\Origins\/EhgmzZrbBAmDD+aX297m/nt0ckc9srFInyx6slsUr4
HKLM\SOFTWARE\Microsoft\Windows\CurrentVersion\AppModel\Origins\Rm/kJVqNurZzL+N/r2lkGWVlDW+RK+nG1SyqNQqNwmc
"SHA1=75B8849E81DE9066E1AA6EF8D40256A40544498A,MD5=31889FE57C63ABED326E8A64C9550CD4,SHA256=99424FB0AF95729CC8AD0AC89BC25B77825E7D29442FCEECD9D0A74406576540,IMPHASH=00000000000000000000000000000000"
HKU\S-1-5-21-1719095684-3458891352-3955206944-1109\Software\Microsoft\Windows\CurrentVersion\Explorer\Package Installation\Microsoft.Print3D_8wekyb3d8bbwe\InstallProgress
HKU\S-1-5-21-1719095684-3458891352-3955206944-1109\Software\Microsoft\Windows\CurrentVersion\Explorer\Package Installation\Microsoft.Print3D_8wekyb3d8bbwe
HKU\S-1-5-21-1719095684-3458891352-3955206944-1109\Software\Microsoft\Windows\CurrentVersion\Explorer\Package Installation\Microsoft.Wallet_8wekyb3d8bbwe\InstallProgress
HKU\S-1-5-21-1719095684-3458891352-3955206944-1109\Software\Microsoft\Windows\CurrentVersion\Explorer\Package Installation\Microsoft.Wallet_8wekyb3d8bbwe
HKLM\SOFTWARE\Microsoft\Windows\CurrentVersion\AppModel\Origins\oYVMjZE6hpg16s1l3lpzk8YFZq9RObJ0BX6zAG+sNaI
HKLM\SOFTWARE\Microsoft\Windows\CurrentVersion\AppModel\Origins\FaDLhsy+rD631uCmzHh+qiK5155dCnjf1Jk61GTs7iI
HKLM\SOFTWARE\Microsoft\Windows\CurrentVersion\AppModel\StateRepositoryStatus\DeploymentDatabaseStatisticsLastUpdated
HKLM\SOFTWARE\Microsoft\Windows\CurrentVersion\AppModel\StateRepositoryStatus\MachineDatabaseStatisticsLastUpdated
C:\Program Files\WindowsApps\Microsoft.WebMediaExtensions_1.0.13321.0_x64__8wekyb3d8bbwe\microsoft.system.package.metadata\resources.5dede549.pri
HKU\S-1-5-21-1719095684-3458891352-3955206944-1109_Classes\Local Settings\Software\Microsoft\Windows\CurrentVersion\AppModel\Repository\Packages\Microsoft.WebMediaExtensions_1.0.13321.0_x64__8wekyb3d8bbwe\PackageStatus
HKCR\Local Settings\Software\Microsoft\Windows\CurrentVersion\AppModel\PackageRepository\Packages\Microsoft.WebMediaExtensions_1.0.13321.0_neutral_~_8wekyb3d8bbwe\Path
HKCR\Local Settings\Software\Microsoft\Windows\CurrentVersion\AppModel\PackageRepository\Packages\Microsoft.WebMediaExtensions_1.0.13321.0_neutral_~_8wekyb3d8bbwe
HKLM\SOFTWARE\Microsoft\Windows\CurrentVersion\Appx\AppxAllUserStore\Staged\Microsoft.WebpImageExtension_8wekyb3d8bbwe
HKLM\SOFTWARE\Microsoft\Windows\CurrentVersion\Appx\AppxAllUserStore\Staged\Microsoft.WebpImageExtension_8wekyb3d8bbwe\Microsoft.WebpImageExtension_1.0.12821.0_x64__8wekyb3d8bbwe
HKLM\SOFTWARE\Microsoft\Windows\CurrentVersion\Appx\AppxAllUserStore\Staged\Microsoft.WebpImageExtension_8wekyb3d8bbwe\Microsoft.WebpImageExtension_1.0.12821.0_x64__8wekyb3d8bbwe\Microsoft.VCLibs.140.00_14.0.26706.0_x64__8wekyb3d8bbwe
C:\Windows\Prefetch\USOCOREWORKER.EXE-21FE932A.pf
v10.events.data.microsoft.com
type:  5 global.asimov.events.data.trafficmanager.net;type:  5 skypedataprdcolweu03.cloudapp.net;::ffff:52.114.74.44;
52.114.74.44
HKLM\SOFTWARE\Microsoft\Windows NT\CurrentVersion\Schedule\TaskCache\Tasks\{8F8F5002-8ACA-43DD-A747-2F4CA7E36AF8}\DynamicInfo
HKLM\SOFTWARE\Microsoft\Windows NT\CurrentVersion\Schedule\TaskCache\Tasks\{8F8F5002-8ACA-43DD-A747-2F4CA7E36AF8}
HKLM\SOFTWARE\Microsoft\Multimedia\Audio\Journal\Render
HKLM\SOFTWARE\Microsoft\Multimedia\Audio\Journal
type:  5 global.asimov.events.data.trafficmanager.net;type:  5 skypedataprdcolwus05.cloudapp.net;::ffff:52.114.159.32;
HKU\S-1-5-21-1830255721-3727074217-2423397540-1107\Software\Microsoft\Windows\CurrentVersion\StorageSense\Parameters\StoragePolicy
HKU\S-1-5-21-1830255721-3727074217-2423397540-1107\Software\Microsoft\Windows\CurrentVersion\StorageSense\Parameters\CachedSizes
NT AUTHORITY\LOCAL SERVICE
C:\Windows\Prefetch\SEARCHPROTOCOLHOST.EXE-0CB8CADE.pf
C:\Windows\Prefetch\SVCHOST.EXE-17D3B89F.pf
C:\Windows\Prefetch\SVCHOST.EXE-2485618C.pf
C:\Windows\Prefetch\SVCHOST.EXE-8049FA24.pf
C:\Windows\Prefetch\RUNTIMEBROKER.EXE-BB1087FF.pf
"SHA1=22A72E39D307BC628093B043EF058DB1310BBF4B,MD5=28D96A80131C05E552066C798C0D8ACB,SHA256=C5270C0D8718C66382240DB538F9BACDED8DB55424768C2D942A6210B96B2720,IMPHASH=EE1E569AD02AA1F7AECA80AC0601D80D"
C:\Windows\Microsoft.NET\Framework64\v4.0.30319\csc.exe